 _________.___               .__            _____   ________    _______  .__  __
 /   _____/|   | _____ ______ |  |   ____   /     \  \_____  \   \      \ |__|/  |_  ___________
 \_____  \ |   |/     \\____ \|  | _/ __ \ /  \ /  \  /   |   \  /   |   \|  \   __\/  _ \_  __ \
 /        \|   |  Y Y  \  |_> >  |_\  ___//    Y    \/    |    \/    |    \  ||  | (  <_> )  | \/
/_______  /|___|__|_|  /   __/|____/\___  >____|__  /\_______  /\____|__  /__||__|  \____/|__|
        \/           \/|__|             \/        \/         \/         \/